%YAML 1.1
%TAG !u! tag:unity3d.com,2011:
--- !u!114 &11400000
MonoBehaviour:
  m_ObjectHideFlags: 0
  m_PrefabParentObject: {fileID: 0}
  m_PrefabInternal: {fileID: 0}
  m_GameObject: {fileID: 0}
  m_Enabled: 1
  m_EditorHideFlags: 0
  m_Script: {fileID: 11500000, guid: 0b3cbc2201310ec469deb37d4c09ccda, type: 3}
  m_Name: wave_easy_random_10s
  m_EditorClassIdentifier: 
  waveTime: 10
  randomSpawnPoint: 1
  spawnPoint: 1
  waveItems:
  - {fileID: 11400000, guid: 73cd7d5cb6c4cc94aa39008e1d3ddd9e, type: 2}
  healthMultiplier: 1.2
  attackMultiplier: 1.2
  scoreMultiplier: 2
