%YAML 1.1
%TAG !u! tag:unity3d.com,2011:
--- !u!114 &11400000
MonoBehaviour:
  m_ObjectHideFlags: 0
  m_PrefabParentObject: {fileID: 0}
  m_PrefabInternal: {fileID: 0}
  m_GameObject: {fileID: 0}
  m_Enabled: 1
  m_EditorHideFlags: 0
  m_Script: {fileID: 11500000, guid: 0b3cbc2201310ec469deb37d4c09ccda, type: 3}
  m_Name: wave_easy_left
  m_EditorClassIdentifier: 
  waveTime: 12
  randomSpawnPoint: 0
  spawnPoint: 1
  waveItems:
  - {fileID: 11400000, guid: e673b1c6bb6905047a79198662327a92, type: 2}
  - {fileID: 11400000, guid: e577648198a4d9841a57364f9b0fdbc3, type: 2}
  healthMultiplier: 1
  attackMultiplier: 1
  scoreMultiplier: 1
